{
    "▲王": { "type": 0, "positionX": 5, "positionY": 9 },
	"▲飛": { "type": 1, "positionX": 2, "positionY": 8 },
	"▲角": { "type": 2, "positionX": 8, "positionY": 8 },
	"▲金1": { "type": 3, "positionX": 4, "positionY": 9 },
	"▲金2": { "type": 3, "positionX": 6, "positionY": 9 },
	"▲銀1": { "type": 4, "positionX": 3, "positionY": 9 },
	"▲銀2": { "type": 4, "positionX": 7, "positionY": 9 },
	"▲桂1": { "type": 5, "positionX": 2, "positionY": 9 },
	"▲桂2": { "type": 5, "positionX": 8, "positionY": 9 },
	"▲香1": { "type": 6, "positionX": 1, "positionY": 9 },
	"▲香2": { "type": 6, "positionX": 9, "positionY": 9 },
	"▲歩1": { "type": 7, "positionX": 1, "positionY": 7 },
	"▲歩2": { "type": 7, "positionX": 2, "positionY": 7 },
	"▲歩3": { "type": 7, "positionX": 3, "positionY": 7 },
	"▲歩4": { "type": 7, "positionX": 4, "positionY": 7 },
	"▲歩5": { "type": 7, "positionX": 5, "positionY": 7 },
	"▲歩6": { "type": 7, "positionX": 6, "positionY": 7 },
	"▲歩7": { "type": 7, "positionX": 7, "positionY": 7 },
	"▲歩8": { "type": 7, "positionX": 8, "positionY": 7 },
	"▲歩9": { "type": 7, "positionX": 9, "positionY": 7 },
	"△玉": { "type": 20, "positionX": 5, "positionY": 1 },
	"△飛": { "type": 21, "positionX": 8, "positionY": 2 },
	"△角": { "type": 22, "positionX": 2, "positionY": 2 },
	"△金1": { "type": 23, "positionX": 6, "positionY": 1 },
	"△金2": { "type": 23, "positionX": 4, "positionY": 1 },
	"△銀1": { "type": 24, "positionX": 7, "positionY": 1 },
	"△銀2": { "type": 24, "positionX": 3, "positionY": 1 },
	"△桂1": { "type": 25, "positionX": 8, "positionY": 1 },
	"△桂2": { "type": 25, "positionX": 2, "positionY": 1 },
	"△香1": { "type": 26, "positionX": 9, "positionY": 1 },
	"△香2": { "type": 26, "positionX": 1, "positionY": 1 },
	"△歩1": { "type": 27, "positionX": 1, "positionY": 3 },
	"△歩2": { "type": 27, "positionX": 2, "positionY": 3 },
	"△歩3": { "type": 27, "positionX": 3, "positionY": 3 },
	"△歩4": { "type": 27, "positionX": 4, "positionY": 3 },
	"△歩5": { "type": 27, "positionX": 5, "positionY": 3 },
	"△歩6": { "type": 27, "positionX": 6, "positionY": 3 },
	"△歩7": { "type": 27, "positionX": 7, "positionY": 3 },
	"△歩8": { "type": 27, "positionX": 8, "positionY": 3 },
	"△歩9": { "type": 27, "positionX": 9, "positionY": 3 }
}