{
    "turn": 2,
    "initiative": 1,
    "position_table": [
        26,
        25,
        24,
        23,
        20,
        23,
        24,
        25,
        26,
        40,
        21,
        40,
        40,
        40,
        40,
        40,
        22,
        40,
        27,
        27,
        27,
        27,
        27,
        27,
        27,
        27,
        27,
        40,
        40,
        40,
        40,
        40,
        40,
        40,
        40,
        40,
        40,
        40,
        40,
        40,
        40,
        40,
        40,
        40,
        40,
        40,
        40,
        40,
        40,
        40,
        40,
        40,
        40,
        7,
        7,
        7,
        7,
        7,
        7,
        7,
        7,
        7,
        40,
        40,
        2,
        40,
        40,
        40,
        40,
        40,
        1,
        40,
        6,
        5,
        4,
        3,
        0,
        3,
        4,
        5,
        6
    ],
    "hand_table": [
        [
            40,
            40,
            40,
            40,
            40,
            40,
            40,
            40,
            40,
            40,
            40,
            40,
            40,
            40,
            40,
            40,
            40,
            40,
            40,
            40,
            40,
            40,
            40,
            40,
            40,
            40,
            40,
            40,
            40,
            40,
            40,
            40,
            40,
            40,
            40,
            40,
            40,
            40
        ],
        [
            40,
            40,
            40,
            40,
            40,
            40,
            40,
            40,
            40,
            40,
            40,
            40,
            40,
            40,
            40,
            40,
            40,
            40,
            40,
            40,
            40,
            40,
            40,
            40,
            40,
            40,
            40,
            40,
            40,
            40,
            40,
            40,
            40,
            40,
            40,
            40,
            40,
            40
        ]
    ]
}