^C:\USERS\HIROSHIKOBAYASHI\DESKTOP\PROKISHISERVER\SHOGIAPI\SHOGI\DATA_LIST.CPP
/c /ZI /nologo /W3 /WX- /sdl /Od /D _MBCS /Gm /EHsc /RTC1 /MDd /GS /fp:precise /Zc:wchar_t /Zc:forScope /Zc:inline /Fo"X64\DEBUG\\" /Fd"X64\DEBUG\VC140.PDB" /Gd /TP C:\USERS\HIROSHIKOBAYASHI\DESKTOP\PROKISHISERVER\SHOGIAPI\SHOGI\DATA_LIST.CPP
^C:\USERS\HIROSHIKOBAYASHI\DESKTOP\PROKISHISERVER\SHOGIAPI\SHOGI\GAME_LOGIC.CPP
/c /ZI /nologo /W3 /WX- /sdl /Od /D _MBCS /Gm /EHsc /RTC1 /MDd /GS /fp:precise /Zc:wchar_t /Zc:forScope /Zc:inline /Fo"X64\DEBUG\\" /Fd"X64\DEBUG\VC140.PDB" /Gd /TP C:\USERS\HIROSHIKOBAYASHI\DESKTOP\PROKISHISERVER\SHOGIAPI\SHOGI\GAME_LOGIC.CPP
^C:\USERS\HIROSHIKOBAYASHI\DESKTOP\PROKISHISERVER\SHOGIAPI\SHOGI\JSON11.CPP
/c /ZI /nologo /W3 /WX- /sdl /Od /D _MBCS /Gm /EHsc /RTC1 /MDd /GS /fp:precise /Zc:wchar_t /Zc:forScope /Zc:inline /Fo"X64\DEBUG\\" /Fd"X64\DEBUG\VC140.PDB" /Gd /TP C:\USERS\HIROSHIKOBAYASHI\DESKTOP\PROKISHISERVER\SHOGIAPI\SHOGI\JSON11.CPP
^C:\USERS\HIROSHIKOBAYASHI\DESKTOP\PROKISHISERVER\SHOGIAPI\SHOGI\MAIN.CPP
/c /ZI /nologo /W3 /WX- /sdl /Od /D _MBCS /Gm /EHsc /RTC1 /MDd /GS /fp:precise /Zc:wchar_t /Zc:forScope /Zc:inline /Fo"X64\DEBUG\\" /Fd"X64\DEBUG\VC140.PDB" /Gd /TP C:\USERS\HIROSHIKOBAYASHI\DESKTOP\PROKISHISERVER\SHOGIAPI\SHOGI\MAIN.CPP
