^C:\USERS\HIROSHIKOBAYASHI\DESKTOP\PROKISHISERVER\SHOGIAPI\SHOGI\DATA_LIST.CPP|C:\USERS\HIROSHIKOBAYASHI\DESKTOP\PROKISHISERVER\SHOGIAPI\SHOGI\GAME_LOGIC.CPP|C:\USERS\HIROSHIKOBAYASHI\DESKTOP\PROKISHISERVER\SHOGIAPI\SHOGI\JSON11.CPP|C:\USERS\HIROSHIKOBAYASHI\DESKTOP\PROKISHISERVER\SHOGIAPI\SHOGI\MAIN.CPP
C:\USERS\HIROSHIKOBAYASHI\DESKTOP\PROKISHISERVER\SHOGIAPI\SHOGI\X64\DEBUG\VC140.PDB
C:\USERS\HIROSHIKOBAYASHI\DESKTOP\PROKISHISERVER\SHOGIAPI\SHOGI\X64\DEBUG\VC140.IDB
C:\USERS\HIROSHIKOBAYASHI\DESKTOP\PROKISHISERVER\SHOGIAPI\SHOGI\X64\DEBUG\DATA_LIST.OBJ
C:\USERS\HIROSHIKOBAYASHI\DESKTOP\PROKISHISERVER\SHOGIAPI\SHOGI\X64\DEBUG\GAME_LOGIC.OBJ
C:\USERS\HIROSHIKOBAYASHI\DESKTOP\PROKISHISERVER\SHOGIAPI\SHOGI\X64\DEBUG\JSON11.OBJ
C:\USERS\HIROSHIKOBAYASHI\DESKTOP\PROKISHISERVER\SHOGIAPI\SHOGI\X64\DEBUG\MAIN.OBJ
^C:\USERS\HIROSHIKOBAYASHI\DESKTOP\PROKISHISERVER\SHOGIAPI\SHOGI\DATA_LIST.CPP
C:\USERS\HIROSHIKOBAYASHI\DESKTOP\PROKISHISERVER\SHOGIAPI\SHOGI\X64\DEBUG\VC140.PDB
^C:\USERS\HIROSHIKOBAYASHI\DESKTOP\PROKISHISERVER\SHOGIAPI\SHOGI\GAME_LOGIC.CPP
C:\USERS\HIROSHIKOBAYASHI\DESKTOP\PROKISHISERVER\SHOGIAPI\SHOGI\X64\DEBUG\VC140.PDB
C:\USERS\HIROSHIKOBAYASHI\DESKTOP\PROKISHISERVER\SHOGIAPI\SHOGI\X64\DEBUG\VC140.IDB
C:\USERS\HIROSHIKOBAYASHI\DESKTOP\PROKISHISERVER\SHOGIAPI\SHOGI\X64\DEBUG\GAME_LOGIC.OBJ
^C:\USERS\HIROSHIKOBAYASHI\DESKTOP\PROKISHISERVER\SHOGIAPI\SHOGI\JSON11.CPP
C:\USERS\HIROSHIKOBAYASHI\DESKTOP\PROKISHISERVER\SHOGIAPI\SHOGI\X64\DEBUG\VC140.PDB
^C:\USERS\HIROSHIKOBAYASHI\DESKTOP\PROKISHISERVER\SHOGIAPI\SHOGI\MAIN.CPP
C:\USERS\HIROSHIKOBAYASHI\DESKTOP\PROKISHISERVER\SHOGIAPI\SHOGI\X64\DEBUG\VC140.PDB
C:\USERS\HIROSHIKOBAYASHI\DESKTOP\PROKISHISERVER\SHOGIAPI\SHOGI\X64\DEBUG\VC140.IDB
C:\USERS\HIROSHIKOBAYASHI\DESKTOP\PROKISHISERVER\SHOGIAPI\SHOGI\X64\DEBUG\MAIN.OBJ
^C:\USERS\HIROSHIKOBAYASHI\DESKTOP\PROKISHISERVER\SHOGIAPI\SHOGI\GAME_LOGIC.CPP|C:\USERS\HIROSHIKOBAYASHI\DESKTOP\PROKISHISERVER\SHOGIAPI\SHOGI\MAIN.CPP
C:\USERS\HIROSHIKOBAYASHI\DESKTOP\PROKISHISERVER\SHOGIAPI\SHOGI\X64\DEBUG\VC140.PDB
C:\USERS\HIROSHIKOBAYASHI\DESKTOP\PROKISHISERVER\SHOGIAPI\SHOGI\X64\DEBUG\VC140.IDB
C:\USERS\HIROSHIKOBAYASHI\DESKTOP\PROKISHISERVER\SHOGIAPI\SHOGI\X64\DEBUG\MAIN.OBJ
C:\USERS\HIROSHIKOBAYASHI\DESKTOP\PROKISHISERVER\SHOGIAPI\SHOGI\X64\DEBUG\GAME_LOGIC.OBJ
